<svg width="245" height="72" viewBox="0 0 245 72" fill="none" xmlns="http://www.w3.org/2000/svg">
<path fill-rule="evenodd" clip-rule="evenodd" d="M245 0H0V72H226C226 65.7026 229.064 60.1208 233.782 56.6637C239.128 52.7466 245 47.6274 245 41V0Z" fill="#1F64EB"/>
</svg>
