<svg width="243" height="163" viewBox="0 0 243 163" fill="none" xmlns="http://www.w3.org/2000/svg">
<circle cx="173" cy="14" r="3" fill="#477CEB"/>
<circle cx="240" cy="53" r="3" fill="#477CEB"/>
<circle cx="13" cy="14" r="3" fill="#477CEB"/>
<circle cx="3" cy="151" r="3" fill="#477CEB"/>
<path fill-rule="evenodd" clip-rule="evenodd" d="M214.366 113.35C214.665 113.256 214.92 113.578 214.746 113.839C214.741 113.847 214.736 113.854 214.731 113.861C214.578 114.093 214.229 114.038 214.145 113.773V113.773C214.089 113.596 214.189 113.406 214.366 113.35V113.35ZM216.115 111.431C215.999 111.674 215.784 111.854 215.528 111.935L214.696 112.197C214.17 112.364 213.608 112.072 213.442 111.545L213.141 110.593C212.975 110.067 213.267 109.505 213.794 109.339L214.747 109.037C215.274 108.871 215.836 109.163 216.002 109.69L216.261 110.509C216.334 110.741 216.321 110.993 216.218 111.214C216.184 111.286 216.15 111.359 216.115 111.431ZM211.836 113.101C212.362 112.935 212.655 112.373 212.488 111.846L212.188 110.894C212.021 110.368 211.46 110.076 210.933 110.242L209.979 110.543C209.453 110.709 209.161 111.271 209.327 111.798L209.627 112.75C209.794 113.276 210.355 113.568 210.882 113.402L211.836 113.101ZM215.099 106.829C215.265 107.356 214.973 107.918 214.446 108.084L213.493 108.385C212.966 108.551 212.404 108.259 212.238 107.733L211.937 106.779C211.77 106.252 212.063 105.691 212.589 105.524L213.543 105.223C214.069 105.057 214.631 105.349 214.798 105.876L215.099 106.829ZM213.894 103.015C214.06 103.541 213.768 104.103 213.242 104.27L212.288 104.571C211.761 104.737 211.2 104.445 211.033 103.918L210.733 102.966C210.567 102.44 210.859 101.878 211.385 101.712L212.339 101.411C212.866 101.244 213.427 101.536 213.594 102.063L213.894 103.015ZM216.404 104.32C215.877 104.486 215.585 105.048 215.751 105.574L216.1 106.678C216.24 107.122 216.713 107.368 217.157 107.228V107.228C217.444 107.137 217.662 106.901 217.72 106.606C217.809 106.151 217.883 105.692 217.94 105.229C218.027 104.537 217.358 104.018 216.693 104.228L216.404 104.32ZM217.709 101.81C217.875 102.337 217.583 102.899 217.056 103.065L216.102 103.366C215.576 103.532 215.014 103.24 214.848 102.714L214.547 101.762C214.381 101.235 214.673 100.674 215.2 100.507L216.153 100.206C216.68 100.04 217.242 100.332 217.408 100.859L217.709 101.81ZM209.427 105.474C209.954 105.308 210.246 104.746 210.08 104.219L209.779 103.268C209.613 102.741 209.051 102.449 208.525 102.615L207.571 102.916C207.044 103.083 206.752 103.644 206.919 104.171L207.219 105.123C207.385 105.649 207.947 105.941 208.474 105.775L209.427 105.474ZM205.613 106.679C206.14 106.512 206.432 105.95 206.265 105.424L205.965 104.472C205.799 103.945 205.237 103.653 204.71 103.82L203.757 104.121C203.23 104.287 202.938 104.849 203.104 105.375L203.405 106.327C203.571 106.854 204.133 107.146 204.659 106.98L205.613 106.679ZM204.308 109.188C204.142 108.661 204.434 108.1 204.961 107.933L205.914 107.632C206.441 107.466 207.003 107.758 207.169 108.285L207.47 109.238C207.636 109.765 207.344 110.327 206.817 110.493L205.864 110.794C205.337 110.96 204.776 110.668 204.609 110.142L204.308 109.188ZM201.799 107.883C202.325 107.717 202.617 107.155 202.451 106.628L202.151 105.677C201.984 105.15 201.423 104.858 200.896 105.024L199.942 105.325C199.416 105.492 199.124 106.053 199.29 106.58L199.59 107.532C199.757 108.058 200.318 108.35 200.845 108.184L201.799 107.883ZM200.494 110.392C200.327 109.866 200.62 109.304 201.146 109.138L202.1 108.837C202.626 108.67 203.188 108.962 203.354 109.489L203.656 110.443C203.822 110.969 203.53 111.531 203.003 111.697L202.05 111.998C201.523 112.165 200.961 111.873 200.795 111.346L200.494 110.392ZM197.984 109.087C198.511 108.921 198.803 108.359 198.637 107.833L198.336 106.881C198.17 106.354 197.608 106.062 197.082 106.229L196.128 106.53C195.601 106.696 195.309 107.258 195.475 107.784L195.776 108.736C195.942 109.263 196.504 109.555 197.031 109.389L197.984 109.087ZM196.679 111.597C196.513 111.07 196.805 110.508 197.332 110.342L198.285 110.041C198.812 109.875 199.374 110.167 199.54 110.694L199.841 111.647C200.008 112.174 199.715 112.736 199.189 112.902L198.235 113.203C197.709 113.369 197.147 113.077 196.981 112.55L196.679 111.597ZM194.17 110.292C194.697 110.126 194.989 109.564 194.822 109.037L194.522 108.086C194.356 107.559 193.794 107.267 193.267 107.433L192.314 107.734C191.787 107.901 191.495 108.462 191.661 108.989L191.962 109.941C192.128 110.467 192.69 110.759 193.216 110.593L194.17 110.292ZM192.865 112.801C192.699 112.275 192.991 111.713 193.518 111.547L194.471 111.246C194.998 111.079 195.56 111.371 195.726 111.898L196.027 112.852C196.193 113.378 195.901 113.94 195.374 114.106L194.421 114.407C193.894 114.574 193.332 114.282 193.166 113.755L192.865 112.801ZM190.356 111.496C190.882 111.33 191.174 110.768 191.008 110.242L190.708 109.29C190.541 108.763 189.98 108.471 189.453 108.638L188.499 108.939C187.973 109.105 187.681 109.667 187.847 110.193L188.147 111.145C188.314 111.672 188.875 111.964 189.402 111.798L190.356 111.496ZM189.051 114.006C188.884 113.479 189.177 112.917 189.703 112.751L190.657 112.45C191.183 112.284 191.745 112.576 191.911 113.103L192.213 114.056C192.379 114.583 192.087 115.144 191.56 115.311L190.607 115.612C190.08 115.778 189.518 115.486 189.352 114.959L189.051 114.006ZM186.541 112.701C187.068 112.535 187.36 111.973 187.194 111.446L186.893 110.495C186.727 109.968 186.165 109.676 185.639 109.842L184.685 110.143C184.158 110.309 183.866 110.871 184.032 111.398L184.333 112.35C184.499 112.876 185.061 113.168 185.588 113.002L186.541 112.701ZM185.236 115.21C185.07 114.684 185.362 114.122 185.889 113.956L186.842 113.655C187.369 113.488 187.931 113.78 188.097 114.307L188.398 115.261C188.565 115.787 188.272 116.349 187.746 116.515L186.792 116.816C186.266 116.983 185.704 116.691 185.537 116.164L185.236 115.21ZM182.727 113.905C183.254 113.739 183.546 113.177 183.379 112.651L183.079 111.699C182.913 111.172 182.351 110.88 181.824 111.047L180.893 111.341C180.63 111.424 180.349 111.278 180.266 111.014V111.014C180.182 110.751 180.328 110.47 180.592 110.387L181.523 110.093C182.05 109.927 182.342 109.365 182.176 108.838L181.874 107.885C181.708 107.358 181.146 107.066 180.62 107.232L179.606 107.552C179.342 107.636 179.061 107.49 178.978 107.226V107.226C178.895 106.963 179.041 106.682 179.304 106.599L180.319 106.279C180.845 106.112 181.137 105.551 180.971 105.024L180.67 104.072C180.504 103.546 179.942 103.253 179.416 103.42L178.849 103.599C178.414 103.736 178.125 104.151 178.167 104.605C178.297 106 178.576 107.403 179.015 108.794C179.567 110.539 180.335 112.156 181.281 113.623C181.518 113.99 181.974 114.143 182.391 114.012L182.727 113.905ZM182.973 115.877C182.646 115.501 182.825 114.923 183.3 114.773V114.773C183.677 114.654 184.078 114.863 184.197 115.239L184.822 117.22C184.857 117.33 184.796 117.447 184.686 117.481V117.481C184.615 117.504 184.538 117.487 184.483 117.436C183.954 116.946 183.449 116.426 182.973 115.877ZM208.122 107.983C207.956 107.457 208.248 106.895 208.775 106.729L209.728 106.428C210.255 106.261 210.817 106.553 210.983 107.08L211.284 108.034C211.451 108.56 211.158 109.122 210.632 109.288L209.678 109.589C209.152 109.756 208.59 109.464 208.424 108.937L208.122 107.983ZM212.69 99.2024C212.857 99.729 212.564 100.291 212.038 100.457L211.084 100.758C210.558 100.924 209.996 100.632 209.83 100.106L209.528 99.1521C209.362 98.6255 209.654 98.0637 210.181 97.8974L211.134 97.5963C211.661 97.43 212.223 97.7221 212.389 98.2488L212.69 99.2024ZM208.223 101.662C208.75 101.495 209.042 100.933 208.876 100.407L208.575 99.4533C208.408 98.9266 207.847 98.6345 207.32 98.8008L206.367 99.1019C205.84 99.2682 205.548 99.83 205.714 100.357L206.015 101.31C206.181 101.837 206.743 102.129 207.27 101.963L208.223 101.662ZM211.486 95.388C211.652 95.9147 211.36 96.4764 210.833 96.6427L209.88 96.9438C209.353 97.1101 208.791 96.818 208.625 96.2914L208.324 95.3397C208.158 94.813 208.45 94.2513 208.977 94.0849L209.931 93.7838C210.457 93.6175 211.019 93.9096 211.185 94.4363L211.486 95.388ZM207.019 97.8472C207.546 97.6809 207.838 97.1191 207.671 96.5925L207.371 95.6408C207.205 95.1141 206.643 94.822 206.116 94.9883L205.163 95.2894C204.636 95.4557 204.344 96.0175 204.51 96.5441L204.811 97.4959C204.977 98.0225 205.539 98.3146 206.065 98.1483L207.019 97.8472ZM210.282 91.5755C210.448 92.1022 210.156 92.6639 209.629 92.8302L208.676 93.1314C208.149 93.2977 207.587 93.0055 207.421 92.4789L207.12 91.5253C206.954 90.9987 207.246 90.4369 207.772 90.2706L208.726 89.9695C209.253 89.8032 209.814 90.0953 209.981 90.6219L210.282 91.5755ZM205.815 94.0347C206.342 93.8684 206.634 93.3067 206.468 92.78L206.166 91.8264C206 91.2998 205.438 91.0077 204.912 91.174L203.958 91.4751C203.431 91.6414 203.139 92.2031 203.306 92.7298L203.607 93.6834C203.773 94.21 204.335 94.5022 204.861 94.3358L205.815 94.0347ZM209.077 87.7612C209.244 88.2878 208.952 88.8496 208.425 89.0159L207.471 89.317C206.945 89.4833 206.383 89.1912 206.217 88.6646L205.916 87.7128C205.75 87.1862 206.042 86.6244 206.569 86.4581L207.522 86.157C208.049 85.9907 208.611 86.2828 208.777 86.8095L209.077 87.7612ZM204.611 90.2204C205.137 90.0541 205.429 89.4923 205.263 88.9657L204.963 88.014C204.796 87.4873 204.234 87.1952 203.708 87.3615L202.754 87.6626C202.228 87.8289 201.935 88.3907 202.102 88.9173L202.402 89.869C202.569 90.3957 203.13 90.6878 203.657 90.5215L204.611 90.2204ZM206.042 84.4211C206.591 84.6592 206.522 85.4243 205.951 85.6043V85.6043C205.601 85.7151 205.224 85.5213 205.113 85.1705V85.1705C204.948 84.6468 205.449 84.1667 205.954 84.383C205.984 84.3956 206.013 84.4083 206.042 84.4211ZM203.407 86.4079C203.933 86.2416 204.225 85.6798 204.059 85.1532L203.654 83.8704C203.587 83.6568 203.417 83.4906 203.2 83.4332V83.4332C203.08 83.4013 202.953 83.4051 202.835 83.4425L201.55 83.8483C201.023 84.0146 200.731 84.5763 200.897 85.103L201.198 86.0566C201.365 86.5832 201.926 86.8753 202.453 86.709L203.407 86.4079ZM213.262 115.803C213.481 115.548 213.546 115.197 213.445 114.876L213.392 114.707C213.225 114.18 212.664 113.888 212.137 114.054L211.183 114.356C210.657 114.522 210.365 115.084 210.531 115.61L210.95 116.938C211.051 117.258 211.393 117.435 211.713 117.334V117.334C211.801 117.307 211.882 117.259 211.948 117.195C212.409 116.751 212.848 116.286 213.262 115.803ZM202.997 121.639C203.079 121.901 202.926 122.18 202.659 122.243C201.922 122.416 201.184 122.547 200.447 122.635C200.289 122.654 200.14 122.557 200.092 122.404V122.404C200.036 122.228 200.134 122.039 200.311 121.983L202.394 121.326C202.647 121.246 202.917 121.386 202.997 121.639V121.639ZM202.25 119.274C202.416 119.801 202.124 120.362 201.597 120.529L200.644 120.83C200.117 120.996 199.555 120.704 199.389 120.177L199.088 119.224C198.921 118.697 199.214 118.135 199.74 117.969L200.694 117.668C201.22 117.502 201.782 117.794 201.949 118.32L202.25 119.274ZM197.783 121.733C198.309 121.567 198.602 121.005 198.435 120.478L198.134 119.525C197.968 118.998 197.406 118.706 196.879 118.872L195.926 119.174C195.399 119.34 195.107 119.902 195.273 120.428L195.575 121.382C195.741 121.908 196.303 122.201 196.829 122.034L197.783 121.733ZM201.045 115.46C201.211 115.986 200.919 116.548 200.393 116.714L199.439 117.015C198.912 117.182 198.351 116.89 198.184 116.363L197.884 115.411C197.718 114.885 198.01 114.323 198.536 114.157L199.49 113.855C200.017 113.689 200.578 113.981 200.745 114.508L201.045 115.46ZM196.578 117.919C197.105 117.752 197.397 117.191 197.231 116.664L196.93 115.712C196.764 115.186 196.202 114.894 195.676 115.06L194.722 115.361C194.195 115.527 193.903 116.089 194.07 116.616L194.37 117.567C194.536 118.094 195.098 118.386 195.625 118.22L196.578 117.919ZM197.433 104.02C197.599 104.547 197.307 105.109 196.78 105.275L195.827 105.576C195.3 105.742 194.738 105.45 194.572 104.924L194.271 103.97C194.105 103.443 194.397 102.882 194.923 102.715L195.877 102.414C196.404 102.248 196.965 102.54 197.132 103.067L197.433 104.02ZM192.966 106.479C193.493 106.313 193.785 105.751 193.619 105.225L193.317 104.271C193.151 103.745 192.589 103.452 192.063 103.619L191.109 103.92C190.582 104.086 190.29 104.648 190.457 105.175L190.758 106.128C190.924 106.655 191.486 106.947 192.012 106.781L192.966 106.479ZM196.228 100.206C196.395 100.733 196.103 101.294 195.576 101.461L194.622 101.762C194.096 101.928 193.534 101.636 193.368 101.109L193.067 100.158C192.901 99.6309 193.193 99.0692 193.72 98.9029L194.673 98.6018C195.2 98.4355 195.762 98.7276 195.928 99.2542L196.228 100.206ZM191.762 102.665C192.288 102.499 192.58 101.937 192.414 101.41L192.114 100.459C191.947 99.9321 191.385 99.6399 190.859 99.8063L189.905 100.107C189.379 100.274 189.086 100.835 189.253 101.362L189.553 102.314C189.72 102.84 190.281 103.133 190.808 102.966L191.762 102.665ZM195.025 96.3935C195.191 96.9201 194.899 97.4819 194.372 97.6482L193.418 97.9493C192.892 98.1156 192.33 97.8235 192.164 97.2968L191.863 96.3433C191.696 95.8166 191.988 95.2548 192.515 95.0885L193.469 94.7874C193.995 94.6211 194.557 94.9132 194.723 95.4399L195.025 96.3935ZM193.82 92.5791C193.986 93.1058 193.694 93.6675 193.168 93.8338L192.214 94.135C191.687 94.3013 191.126 94.0091 190.959 93.4825L190.659 92.5308C190.492 92.0041 190.785 91.4424 191.311 91.2761L192.265 90.9749C192.791 90.8086 193.353 91.1008 193.519 91.6274L193.82 92.5791ZM196.329 93.8841C195.803 94.0504 195.511 94.6121 195.677 95.1388L195.978 96.0924C196.144 96.619 196.706 96.9111 197.233 96.7448L198.186 96.4437C198.713 96.2774 199.005 95.7156 198.839 95.189L198.538 94.2354C198.371 93.7088 197.81 93.4166 197.283 93.5829L196.329 93.8841ZM197.634 91.3746C197.801 91.9013 197.509 92.463 196.982 92.6294L196.028 92.9305C195.502 93.0968 194.94 92.8047 194.774 92.278L194.473 91.3263C194.307 90.7996 194.599 90.2379 195.126 90.0716L196.079 89.7705C196.606 89.6042 197.168 89.8963 197.334 90.4229L197.634 91.3746ZM200.144 92.6796C199.617 92.8459 199.325 93.4076 199.491 93.9343L199.792 94.8879C199.959 95.4145 200.52 95.7066 201.047 95.5403L202.001 95.2392C202.527 95.0729 202.819 94.5112 202.653 93.9845L202.352 93.0309C202.186 92.5043 201.624 92.2121 201.097 92.3785L200.144 92.6796ZM201.449 90.1702C201.615 90.6968 201.323 91.2586 200.796 91.4249L199.843 91.726C199.316 91.8923 198.754 91.6002 198.588 91.0735L198.287 90.1218C198.121 89.5951 198.413 89.0334 198.94 88.8671L199.893 88.566C200.42 88.3997 200.982 88.6918 201.148 89.2184L201.449 90.1702ZM211.587 89.0661C211.06 89.2324 210.768 89.7942 210.934 90.3208L211.235 91.2744C211.402 91.8011 211.964 92.0932 212.49 91.9269L214.185 91.3917C214.302 91.3547 214.367 91.2296 214.33 91.1123V91.1123C214.323 91.0897 214.312 91.0684 214.299 91.0492C213.843 90.4191 213.353 89.8197 212.833 89.2529C212.578 88.9749 212.183 88.8778 211.823 88.9914L211.587 89.0661ZM210.962 87.4631C211.247 87.7026 211.148 88.1559 210.793 88.268V88.268C210.539 88.3485 210.266 88.2034 210.185 87.9487V87.9487C210.041 87.4907 210.547 87.1164 210.915 87.4241C210.931 87.4371 210.947 87.4501 210.962 87.4631ZM189.353 95.0383C189.88 94.872 190.172 94.3103 190.006 93.7836L189.705 92.8319C189.539 92.3052 188.977 92.0131 188.45 92.1794L187.497 92.4805C186.97 92.6469 186.678 93.2086 186.844 93.7353L187.145 94.687C187.311 95.2136 187.873 95.5057 188.4 95.3394L189.353 95.0383ZM185.539 96.2428C186.066 96.0765 186.358 95.5148 186.191 94.9881L185.891 94.0364C185.724 93.5097 185.163 93.2176 184.636 93.3839L183.683 93.685C183.156 93.8513 182.864 94.4131 183.03 94.9397L183.331 95.8915C183.497 96.4181 184.059 96.7102 184.585 96.5439L185.539 96.2428ZM184.234 98.7522C184.068 98.2256 184.36 97.6638 184.886 97.4975L185.84 97.1964C186.367 97.0301 186.928 97.3222 187.095 97.8489L187.396 98.8024C187.562 99.3291 187.27 99.8908 186.743 100.057L185.79 100.358C185.263 100.525 184.701 100.232 184.535 99.7058L184.234 98.7522ZM181.725 97.4473C182.251 97.281 182.543 96.7192 182.377 96.1926L182.076 95.2409C181.91 94.7142 181.348 94.4221 180.822 94.5884L180.119 94.8104C179.84 94.8984 179.613 95.1032 179.505 95.3745C179.444 95.5257 179.386 95.6776 179.329 95.8303C179.254 96.0334 179.251 96.2559 179.316 96.4625L179.516 97.096C179.683 97.6226 180.244 97.9147 180.771 97.7484L181.725 97.4473ZM180.42 99.9567C180.253 99.4301 180.545 98.8683 181.072 98.702L182.026 98.4009C182.552 98.2346 183.114 98.5267 183.28 99.0533L183.581 100.007C183.748 100.534 183.456 101.095 182.929 101.262L181.975 101.563C181.449 101.729 180.887 101.437 180.721 100.91L180.42 99.9567ZM178.751 98.3861C178.813 98.3665 178.848 98.3001 178.828 98.238V98.238C178.792 98.1237 178.63 98.1302 178.602 98.247V98.247C178.582 98.3354 178.665 98.4135 178.751 98.3861V98.3861ZM178.291 99.8893C178.32 99.6897 178.463 99.5259 178.655 99.4652V99.4652C178.937 99.3763 179.237 99.5325 179.326 99.814L179.803 101.324C179.949 101.789 179.692 102.284 179.227 102.431V102.431C178.66 102.61 178.081 102.186 178.117 101.592C178.15 101.02 178.209 100.452 178.291 99.8893ZM188.048 97.5477C187.882 97.0211 188.174 96.4593 188.701 96.293L189.654 95.9919C190.181 95.8256 190.743 96.1177 190.909 96.6444L191.21 97.598C191.376 98.1246 191.084 98.6864 190.558 98.8527L189.604 99.1538C189.077 99.3201 188.516 99.028 188.349 98.5013L188.048 97.5477ZM192.616 88.7666C192.782 89.2933 192.49 89.8551 191.964 90.0214L191.01 90.3225C190.483 90.4888 189.922 90.1967 189.755 89.67L189.454 88.7164C189.288 88.1898 189.58 87.628 190.107 87.4617L191.06 87.1606C191.587 86.9943 192.149 87.2864 192.315 87.8131L192.616 88.7666ZM188.149 91.2258C188.676 91.0595 188.968 90.4978 188.802 89.9711L188.501 89.0175C188.334 88.4909 187.773 88.1988 187.246 88.3651L186.292 88.6662C185.766 88.8325 185.474 89.3943 185.64 89.9209L185.941 90.8745C186.107 91.4012 186.669 91.6933 187.196 91.527L188.149 91.2258ZM191.423 84.9881C191.583 85.495 191.302 86.0356 190.795 86.1957L189.69 86.5445C189.227 86.6907 188.733 86.4339 188.587 85.9708V85.9708C188.461 85.572 188.633 85.1378 189.006 84.9484C189.389 84.7538 189.78 84.5705 190.18 84.3991C190.685 84.1822 191.257 84.4635 191.423 84.9881V84.9881ZM187.329 87.2903C187.643 87.1909 187.818 86.8553 187.719 86.5407V86.5407C187.601 86.1685 187.164 86.0071 186.841 86.2264C186.21 86.6548 185.608 87.1167 185.037 87.6088C184.976 87.6612 184.953 87.7448 184.977 87.8213V87.8213C185.01 87.9276 185.124 87.9865 185.23 87.953L187.329 87.2903ZM198.938 122.758C199.046 122.753 199.12 122.647 199.087 122.544V122.544C199.06 122.456 198.967 122.408 198.879 122.436L198.866 122.44C198.672 122.501 198.714 122.768 198.918 122.759C198.925 122.759 198.931 122.758 198.938 122.758ZM209.226 118.12C209.753 117.953 210.045 117.392 209.878 116.865L209.577 115.911C209.411 115.385 208.849 115.093 208.323 115.259L207.369 115.56C206.842 115.726 206.55 116.288 206.716 116.815L207.018 117.768C207.184 118.295 207.746 118.587 208.272 118.421L209.226 118.12ZM205.412 119.324C205.938 119.158 206.23 118.596 206.064 118.069L205.763 117.116C205.597 116.589 205.035 116.297 204.508 116.463L203.555 116.765C203.028 116.931 202.736 117.493 202.902 118.019L203.203 118.973C203.37 119.499 203.931 119.792 204.458 119.625L205.412 119.324ZM203.958 121.361C203.874 121.096 204.021 120.812 204.287 120.728L206.263 120.104C206.486 120.034 206.723 120.157 206.793 120.38V120.38C206.856 120.579 206.764 120.795 206.575 120.883C205.934 121.182 205.272 121.451 204.589 121.685C204.325 121.775 204.041 121.627 203.958 121.361V121.361ZM207.702 119.937C207.657 119.793 207.737 119.639 207.881 119.593L207.923 119.58C208.268 119.471 208.463 119.878 208.151 120.06C208.132 120.07 208.114 120.081 208.095 120.092C207.945 120.178 207.755 120.102 207.702 119.937V119.937ZM208.021 114.305C208.548 114.139 208.84 113.577 208.674 113.051L208.373 112.099C208.207 111.572 207.645 111.28 207.119 111.446L206.165 111.748C205.638 111.914 205.346 112.476 205.513 113.002L205.813 113.954C205.979 114.481 206.541 114.773 207.068 114.606L208.021 114.305ZM216.505 97.9979C216.671 98.5245 216.379 99.0863 215.852 99.2526L214.899 99.5537C214.372 99.72 213.81 99.4279 213.644 98.9012L213.343 97.9476C213.176 97.421 213.469 96.8592 213.995 96.6929L214.949 96.3918C215.475 96.2255 216.037 96.5176 216.203 97.0443L216.505 97.9979ZM204.409 102.866C204.936 102.7 205.228 102.138 205.062 101.611L204.76 100.658C204.594 100.131 204.032 99.839 203.506 100.005L202.552 100.306C202.026 100.473 201.733 101.034 201.9 101.561L202.201 102.515C202.367 103.041 202.929 103.333 203.456 103.167L204.409 102.866ZM200.595 104.071C201.121 103.904 201.414 103.342 201.247 102.816L200.946 101.862C200.78 101.336 200.218 101.043 199.691 101.21L198.738 101.511C198.211 101.677 197.919 102.239 198.085 102.766L198.386 103.719C198.553 104.246 199.115 104.538 199.641 104.372L200.595 104.071ZM189.152 107.684C189.678 107.518 189.971 106.956 189.804 106.429L189.503 105.476C189.337 104.949 188.775 104.657 188.248 104.823L187.295 105.124C186.768 105.291 186.476 105.852 186.642 106.379L186.943 107.333C187.11 107.859 187.672 108.151 188.198 107.985L189.152 107.684ZM185.337 108.888C185.864 108.722 186.156 108.16 185.99 107.634L185.689 106.68C185.522 106.154 184.961 105.861 184.434 106.028L183.48 106.329C182.954 106.495 182.662 107.057 182.828 107.584L183.129 108.537C183.295 109.064 183.857 109.356 184.384 109.19L185.337 108.888ZM203.205 99.0517C203.731 98.8854 204.023 98.3236 203.857 97.797L203.557 96.8453C203.39 96.3186 202.828 96.0265 202.302 96.1928L201.348 96.4939C200.822 96.6602 200.529 97.222 200.696 97.7486L200.996 98.7003C201.163 99.227 201.724 99.5191 202.251 99.3528L203.205 99.0517ZM199.592 87.6124C200.119 87.4461 200.411 86.8843 200.245 86.3577L199.944 85.4041C199.777 84.8774 199.216 84.5853 198.689 84.7516L197.735 85.0527C197.209 85.2191 196.917 85.7808 197.083 86.3075L197.384 87.261C197.55 87.7877 198.112 88.0798 198.639 87.9135L199.592 87.6124ZM200.397 82.9C200.54 82.9167 200.559 83.1126 200.422 83.1558V83.1558C200.352 83.1778 200.277 83.1394 200.255 83.0699V83.0699C200.227 82.9791 200.302 82.889 200.397 82.9V82.9ZM198.926 83.6283C199.155 83.5557 199.283 83.3107 199.21 83.081V83.081C199.155 82.9074 198.999 82.7857 198.817 82.779C198.173 82.7555 197.526 82.7632 196.876 82.8032C196.422 82.831 196.127 83.2816 196.264 83.7149V83.7149C196.384 84.0934 196.788 84.3034 197.166 84.1839L198.926 83.6283ZM192.764 119.123C193.291 118.957 193.583 118.395 193.416 117.869L193.116 116.917C192.95 116.39 192.388 116.098 191.861 116.264L190.908 116.566C190.381 116.732 190.089 117.294 190.255 117.82L190.556 118.772C190.722 119.299 191.284 119.591 191.81 119.424L192.764 119.123ZM187.947 103.87C188.474 103.703 188.766 103.142 188.6 102.615L188.299 101.663C188.133 101.137 187.571 100.844 187.044 101.011L186.091 101.312C185.564 101.478 185.272 102.04 185.438 102.567L185.739 103.518C185.905 104.045 186.467 104.337 186.994 104.171L187.947 103.87ZM196.43 87.5622C196.597 88.0888 196.305 88.6506 195.778 88.8169L194.824 89.118C194.298 89.2843 193.736 88.9922 193.57 88.4655L193.269 87.5119C193.102 86.9853 193.394 86.4235 193.921 86.2572L194.875 85.9561C195.401 85.7898 195.963 86.0819 196.129 86.6086L196.43 87.5622ZM184.335 92.4303C184.862 92.264 185.154 91.7023 184.987 91.1756L184.686 90.222C184.52 89.6954 183.958 89.4033 183.432 89.5696L183.191 89.6456C183.013 89.7017 182.854 89.8061 182.735 89.9493C182.524 90.2024 182.319 90.4605 182.121 90.7232C181.932 90.9744 181.881 91.3023 181.976 91.6022L182.127 92.079C182.293 92.6056 182.855 92.8978 183.381 92.7314L184.335 92.4303ZM181.114 93.4475C181.313 93.3847 181.423 93.1726 181.361 92.9738V92.9738C181.264 92.6665 180.854 92.6163 180.695 92.8966C180.689 92.9059 180.684 92.9152 180.679 92.9244C180.514 93.2167 180.794 93.5486 181.114 93.4475V93.4475ZM193.293 122.191C194.016 122.37 194.62 121.678 194.395 120.968L194.32 120.729C194.154 120.203 193.592 119.911 193.065 120.077L191.801 120.476C191.446 120.588 191.249 120.967 191.361 121.322V121.322C191.425 121.524 191.58 121.686 191.781 121.753C192.278 121.918 192.783 122.065 193.293 122.191ZM212.139 94.1352C211.973 93.6085 212.265 93.0468 212.791 92.8805L213.745 92.5793C214.272 92.413 214.833 92.7052 215 93.2318L215.3 94.1835C215.466 94.7102 215.174 95.2719 214.648 95.4382L213.694 95.7394C213.167 95.9057 212.606 95.6135 212.439 95.0869L212.139 94.1352ZM204.207 115.51C204.734 115.344 205.026 114.782 204.86 114.255L204.559 113.303C204.393 112.777 203.831 112.485 203.304 112.651L202.351 112.952C201.824 113.118 201.532 113.68 201.698 114.207L201.999 115.158C202.165 115.685 202.727 115.977 203.253 115.811L204.207 115.51ZM189.036 120.301C189.515 120.149 189.781 119.638 189.629 119.159L189.302 118.121C189.135 117.595 188.574 117.303 188.047 117.469L186.862 117.843C186.463 117.969 186.242 118.394 186.368 118.793V118.793C186.417 118.949 186.516 119.086 186.65 119.18C187.195 119.558 187.757 119.91 188.335 120.233C188.549 120.352 188.802 120.374 189.036 120.301V120.301ZM190.135 121.123C190.08 121.099 190.084 121.018 190.142 121V121C190.176 120.989 190.213 121.008 190.224 121.043V121.043C190.241 121.097 190.187 121.145 190.135 121.123V121.123ZM199.39 100.256C199.917 100.09 200.209 99.5281 200.043 99.0015L199.742 98.0497C199.576 97.5231 199.014 97.231 198.488 97.3973L197.534 97.6984C197.007 97.8647 196.715 98.4265 196.881 98.9531L197.182 99.9048C197.348 100.431 197.91 100.724 198.437 100.557L199.39 100.256ZM184.133 105.074C184.66 104.908 184.952 104.346 184.785 103.819L184.485 102.868C184.319 102.341 183.757 102.049 183.23 102.215L182.277 102.516C181.75 102.683 181.458 103.244 181.624 103.771L181.925 104.723C182.091 105.249 182.653 105.542 183.179 105.375L184.133 105.074ZM194.618 84.9886C195.12 84.83 195.399 84.2943 195.24 83.792V83.792C195.098 83.342 194.647 83.0612 194.185 83.1538C193.798 83.2313 193.411 83.3207 193.024 83.4221C192.491 83.5622 192.199 84.126 192.366 84.6521V84.6521C192.532 85.1783 193.093 85.4701 193.619 85.3039L194.618 84.9886ZM216.892 108.36C217.081 108.301 217.26 108.475 217.201 108.664C217.2 108.669 217.198 108.674 217.196 108.679C217.124 108.911 216.803 108.905 216.73 108.673V108.673C216.688 108.542 216.761 108.402 216.892 108.36V108.36Z" fill="#477CEB"/>
<path fill-rule="evenodd" clip-rule="evenodd" d="M209.535 0C208.553 1.95509 208 4.16298 208 6.5C208 14.5081 214.492 21 222.5 21C230.508 21 237 14.5081 237 6.5C237 4.16298 236.447 1.95509 235.465 0H209.535Z" fill="#477CEB"/>
<path fill-rule="evenodd" clip-rule="evenodd" d="M87.465 162.139C88.457 160.189 89.0211 157.984 89.0329 155.647C89.0735 147.639 82.6146 141.114 74.6066 141.073C66.5986 141.033 60.0739 147.492 60.0333 155.5C60.0215 157.837 60.5632 160.047 61.5353 162.007L87.465 162.139Z" fill="#477CEB"/>
</svg>
